simulation/qsim/lcl5.msim.vcd
$comment
	File created using the following command:
		vcd file lcl5.msim.vcd -direction
$end
$date
	Fri Dec 08 01:00:32 2023
$end
$version
	ModelSim Version 10.1d
$end
$timescale
	1ps
$end
$scope module Block12_vlg_vec_tst $end
$var reg 1 ! KEY [3:3] $end
$var wire 1 " LEDR [2] $end
$var wire 1 # LEDR [1] $end
$var wire 1 $ LEDR [0] $end
$var wire 1 % T0 $end
$var wire 1 & T1 $end
$var wire 1 ' T2 $end
$var wire 1 ( sampler $end
$scope module i1 $end
$var wire 1 ) gnd $end
$var wire 1 * vcc $end
$var wire 1 + unknown $end
$var tri1 1 , devclrn $end
$var tri1 1 - devpor $end
$var tri1 1 . devoe $end
$var wire 1 / KEY[3]~clkctrl_outclk $end
$var wire 1 0 inst4~0_combout $end
$var wire 1 1 inst4~regout $end
$var wire 1 2 inst5~0_combout $end
$var wire 1 3 inst5~regout $end
$var wire 1 4 inst6~0_combout $end
$var wire 1 5 inst6~regout $end
$var wire 1 6 inst2|inst2~0_combout $end
$var wire 1 7 inst3|inst2~combout $end
$var wire 1 8 inst18|inst2~combout $end
$var wire 1 9 KEY~combout [3] $end
$upscope $end
$upscope $end
$enddefinitions $end
#0
$dumpvars
b0 !
0$
0#
0"
1%
0&
0'
x(
0)
1*
x+
1,
1-
1.
0/
10
01
02
03
04
05
06
07
08
09
$end
#10000
b1 !
19
1/
0(
11
18
17
14
12
00
1"
1'
1&
#20000
b0 !
09
0/
1(
#30000
b1 !
19
1/
0(
15
13
01
07
16
04
1$
1#
0"
0&
0%
#40000
b0 !
09
0/
1(
#50000
b1 !
19
1/
0(
05
17
06
14
02
10
0$
1&
1%
#60000
b0 !
09
0/
1(
#70000
b1 !
19
1/
0(
15
03
11
08
16
12
1$
0#
1"
0'
0%
#80000
b0 !
09
0/
1(
#90000
b1 !
19
1/
0(
13
18
06
04
02
00
1#
1'
1%
#100000
b0 !
09
0/
1(
#110000
b1 !
19
1/
0(
05
03
01
08
07
10
0$
0#
0"
0'
0&
#120000
b0 !
09
0/
1(
#130000
b1 !
19
1/
0(
11
18
17
14
12
00
1"
1'
1&
#140000
b0 !
09
0/
1(
#150000
b1 !
19
1/
0(
15
13
01
07
16
04
1$
1#
0"
0&
0%
#160000
b0 !
09
0/
1(
#170000
b1 !
19
1/
0(
05
17
06
14
02
10
0$
1&
1%
#180000
b0 !
09
0/
1(
#190000
b1 !
19
1/
0(
15
03
11
08
16
12
1$
0#
1"
0'
0%
#200000
b0 !
09
0/
1(
#210000
b1 !
19
1/
0(
13
18
06
04
02
00
1#
1'
1%
#220000
b0 !
09
0/
1(
#230000
b1 !
19
1/
0(
05
03
01
08
07
10
0$
0#
0"
0'
0&
#240000
b0 !
09
0/
1(
#250000
b1 !
19
1/
0(
11
18
17
14
12
00
1"
1'
1&
#260000
b0 !
09
0/
1(
#270000
b1 !
19
1/
0(
15
13
01
07
16
04
1$
1#
0"
0&
0%
#280000
b0 !
09
0/
1(
#290000
b1 !
19
1/
0(
05
17
06
14
02
10
0$
1&
1%
#300000
b0 !
09
0/
1(
#310000
b1 !
19
1/
0(
15
03
11
08
16
12
1$
0#
1"
0'
0%
#320000
b0 !
09
0/
1(
#330000
b1 !
19
1/
0(
13
18
06
04
02
00
1#
1'
1%
#340000
b0 !
09
0/
1(
#350000
b1 !
19
1/
0(
05
03
01
08
07
10
0$
0#
0"
0'
0&
#360000
b0 !
09
0/
1(
#370000
b1 !
19
1/
0(
11
18
17
14
12
00
1"
1'
1&
#380000
b0 !
09
0/
1(
#390000
b1 !
19
1/
0(
15
13
01
07
16
04
1$
1#
0"
0&
0%
#400000
b0 !
09
0/
1(
#410000
b1 !
19
1/
0(
05
17
06
14
02
10
0$
1&
1%
#420000
b0 !
09
0/
1(
#430000
b1 !
19
1/
0(
15
03
11
08
16
12
1$
0#
1"
0'
0%
#440000
b0 !
09
0/
1(
#450000
b1 !
19
1/
0(
13
18
06
04
02
00
1#
1'
1%
#460000
b0 !
09
0/
1(
#470000
b1 !
19
1/
0(
05
03
01
08
07
10
0$
0#
0"
0'
0&
#480000
b0 !
09
0/
1(
#490000
b1 !
19
1/
0(
11
18
17
14
12
00
1"
1'
1&
#500000
b0 !
09
0/
1(
#510000
b1 !
19
1/
0(
15
13
01
07
16
04
1$
1#
0"
0&
0%
#520000
b0 !
09
0/
1(
#530000
b1 !
19
1/
0(
05
17
06
14
02
10
0$
1&
1%
#540000
b0 !
09
0/
1(
#550000
b1 !
19
1/
0(
15
03
11
08
16
12
1$
0#
1"
0'
0%
#560000
b0 !
09
0/
1(
#570000
b1 !
19
1/
0(
13
18
06
04
02
00
1#
1'
1%
#580000
b0 !
09
0/
1(
#590000
b1 !
19
1/
0(
05
03
01
08
07
10
0$
0#
0"
0'
0&
#600000
b0 !
09
0/
1(
#610000
b1 !
19
1/
0(
11
18
17
14
12
00
1"
1'
1&
#620000
b0 !
09
0/
1(
#630000
b1 !
19
1/
0(
15
13
01
07
16
04
1$
1#
0"
0&
0%
#640000
b0 !
09
0/
1(
#650000
b1 !
19
1/
0(
05
17
06
14
02
10
0$
1&
1%
#660000
b0 !
09
0/
1(
#670000
b1 !
19
1/
0(
15
03
11
08
16
12
1$
0#
1"
0'
0%
#680000
b0 !
09
0/
1(
#690000
b1 !
19
1/
0(
13
18
06
04
02
00
1#
1'
1%
#700000
b0 !
09
0/
1(
#710000
b1 !
19
1/
0(
05
03
01
08
07
10
0$
0#
0"
0'
0&
#720000
b0 !
09
0/
1(
#730000
b1 !
19
1/
0(
11
18
17
14
12
00
1"
1'
1&
#740000
b0 !
09
0/
1(
#750000
b1 !
19
1/
0(
15
13
01
07
16
04
1$
1#
0"
0&
0%
#760000
b0 !
09
0/
1(
#770000
b1 !
19
1/
0(
05
17
06
14
02
10
0$
1&
1%
#780000
b0 !
09
0/
1(
#790000
b1 !
19
1/
0(
15
03
11
08
16
12
1$
0#
1"
0'
0%
#800000
b0 !
09
0/
1(
#810000
b1 !
19
1/
0(
13
18
06
04
02
00
1#
1'
1%
#820000
b0 !
09
0/
1(
#830000
b1 !
19
1/
0(
05
03
01
08
07
10
0$
0#
0"
0'
0&
#840000
b0 !
09
0/
1(
#850000
b1 !
19
1/
0(
11
18
17
14
12
00
1"
1'
1&
#860000
b0 !
09
0/
1(
#870000
b1 !
19
1/
0(
15
13
01
07
16
04
1$
1#
0"
0&
0%
#880000
b0 !
09
0/
1(
#890000
b1 !
19
1/
0(
05
17
06
14
02
10
0$
1&
1%
#900000
b0 !
09
0/
1(
#910000
b1 !
19
1/
0(
15
03
11
08
16
12
1$
0#
1"
0'
0%
#920000
b0 !
09
0/
1(
#930000
b1 !
19
1/
0(
13
18
06
04
02
00
1#
1'
1%
#940000
b0 !
09
0/
1(
#950000
b1 !
19
1/
0(
05
03
01
08
07
10
0$
0#
0"
0'
0&
#960000
b0 !
09
0/
1(
#970000
b1 !
19
1/
0(
11
18
17
14
12
00
1"
1'
1&
#980000
b0 !
09
0/
1(
#990000
b1 !
19
1/
0(
15
13
01
07
16
04
1$
1#
0"
0&
0%
